{
  "status_code": 0,
  "status": "success",
  "message": null,
  "object": {
    "beginDate": {
      "day": 1,
      "month": 8,
      "year": 2017
    },
    "endDate": {
      "day": 3,
      "month": 8,
      "year": 2017
    },
    "scheduleType": "Monthly",
    "time":[{"time":1},{"time":12}]
  }
}
