{
  "status_code": 0,
  "status": "success",
  "message": null,
  "object": [
    {
      "USER_ID": 2,
      "USER_NAME": "Akhilesh",
      "WALLET_ID": 12,
      "PHONE_NO":1234567890,
      "REGION": "5678",
      "ENTITY_TYPE": "Active",
      "ENTITY_SUB_TYPE": "Akhilesh",
      "CREATED_ON": 987654321,
      "LAST_UPDATED_ON": 987654321,
      "ADDED_ON": 987654321
    },
    {
      "USER_ID": 1,
      "USER_NAME": "Akhilesh",
      "WALLET_ID": 89,
      "PHONE_NO":1234567890,
      "REGION": "5678",
      "ENTITY_TYPE": "Active",
      "ENTITY_SUB_TYPE": "Akhilesh",
      "CREATED_ON": 987654321,
      "LAST_UPDATED_ON": 987654321,
      "ADDED_ON": 987654321
    }
  ]
}
