{
  "status_code": 0,
  "status": "success",
  "message": null,
  "object": [{
    "RULE_SET_ID": 389,
    "RULE_SET_NAME": "new_abhsndh",
    "RULE_SET_DESC": "new_abc description",
    "RULE_SET_TYPE": "new_ruleset typ",
    "EVENT_TYPE": "new_evnt type",
    "STATUS": 1,
    "STATUS_DESC": "Active",
    "CREATED_BY": "new_login_by",
    "INSERT_DATE": "24-07-2017",
    "MODIFY_BY": "new_login_by",
    "MODIFY_DATE": "24-07-2017",
    "PRIORITY": 1,
    "SERVICE_TXN_ID": 441,
    "BONUS_WALLET": "new_bonus"
  }, {
    "RULE_SET_ID": 382,
    "RULE_SET_NAME": "abhsndh",
    "RULE_SET_DESC": "abc description",
    "RULE_SET_TYPE": "ruleset typ",
    "EVENT_TYPE": "evnt type",
    "STATUS": 1,
    "STATUS_DESC": "Active",
    "CREATED_BY": "login_by",
    "INSERT_DATE": "24-07-2017",
    "MODIFY_BY": "login_by",
    "MODIFY_DATE": "24-07-2017",
    "PRIORITY": 0,
    "SERVICE_TXN_ID": 441,
    "BONUS_WALLET": "bonus"
  }]
}
