{
  "status_code": 410,
  "status": "success",
  "message": "410",
  "object": [{
    "ruleSetId": "string",
    "ruleSetName": "string",
    "serviceTxnId": "string",
    "serviceName": "string",
    "serviceDesc": "string",
    "txnSubTypeId": "string",
    "txnSubTypeName": "string",
    "attachedServiceGroupsCounts": "string",
    "externalParty": "string",
    "externalPartyName": "string",
    "status": "string"
  }, {
    "ruleSetId": "887",
    "ruleSetName": "dfg",
    "serviceTxnId": "12",
    "serviceName": "stgererring",
    "serviceDesc": "strivcxvxcng",
    "txnSubTypeId": "234",
    "txnSubTypeName": "sdf",
    "attachedServiceGroupsCounts": "tjyt",
    "externalParty": "312",
    "externalPartyName": " kj",
    "status": "xasxsa",
    "creationDate": "27-04-02"
  }, {
    "ruleSetId": "string",
    "ruleSetName": "string",
    "serviceTxnId": "string",
    "serviceName": "string",
    "serviceDesc": "string",
    "txnSubTypeId": "",
    "txnSubTypeName": "",
    "attachedServiceGroupsCounts": "string",
    "externalParty": "",
    "externalPartyName": "",
    "status": "string",
    "creationDate": "27-04-02"
  }]
}
