{
  "status_code": 410,
  "status": "success",
  "message": "410",
  "object": [
    {
      "ruleSetName": "RS_01",
      "ruleSetId": "123"
    },
    {
      "ruleSetName": "RS_02",
      "ruleSetId": "RS_02"
    },
    {
      "ruleSetName": "RS_03",
      "ruleSetId": "RS_03"
    },
    {
      "ruleSetName": "RS_04",
      "ruleSetId": "RS_04"
    }
  ]
}