{
  "mfsCommonServiceResponse": {
    "mfsStatusInfo": {
      "status": "Success",
      "errorCode": 100,
      "errorDescription": "Success."
    },
    "mfsTransactionInfo": {
      "timestamp": "1504685769535",
      "requestId": "00000009999",
      "responseId": "1632fbdd-c30c-4e1b-b778-04e9c093d55a"
    }
  },
  "mfsResponseInfo": {
    "entityId": "2000001170",
    "walletInfo": {
      "wallet": [
        {
          "walletType": 1,
          "curBalance": 0,
          "availBalance": 0,
          "reservedBalance": 0,
          "currency": null
        },
        {
          "walletType": 2,
          "curBalance": 0,
          "availBalance": 0,
          "reservedBalance": 0,
          "currency": null
        },
        {
          "walletType": 3,
          "curBalance": 0,
          "availBalance": 0,
          "reservedBalance": 0,
          "currency": null
        },
        {
          "walletType": 4,
          "curBalance": 0,
          "availBalance": 0,
          "reservedBalance": 0,
          "currency": null
        }
      ]
    }
  },
  "mfsOptionalInfo": {
    "info": [
      {
        "key": "string",
        "value": "string"
      }
    ]
  }
}