{
  "status_code": 410,
  "status": "success",
  "message": "Your Request Process Successfully",
  "object": [
    {
      "entityTypeId": "1",
      "entityTypeName": "Subscriber"
    },
    {
      "entityTypeId": "2",
      "entityTypeName": "Outlet"
    },
    {
      "entityTypeId": "3",
      "entityTypeName": "Merchant"
    },
    {
      "entityTypeId": "4",
      "entityTypeName": "Distributor"
    },
    {
      "entityTypeId": "5",
      "entityTypeName": "Super distributor"
    }
  ]
}